<?xml version="1.0" encoding="utf-8"?>
<!-- Generator: Adobe Illustrator 18.1.0, SVG Export Plug-In . SVG Version: 6.00 Build 0)  -->
<svg version="1.1" id="US_UK_Download_on_the" xmlns="http://www.w3.org/2000/svg" xmlns:xlink="http://www.w3.org/1999/xlink"
	 x="0px" y="0px" viewBox="0 0 64 20" enable-background="new 0 0 64 20" xml:space="preserve">
<g>
	<path d="M63.56,17.241c0,1.003-0.813,1.816-1.818,1.816H2.26c-1.005,0-1.82-0.813-1.82-1.816V2.761c0-1.003,0.815-1.818,1.82-1.818
		h59.481c1.006,0,1.818,0.815,1.818,1.818L63.56,17.241L63.56,17.241z"/>
	<g>
		<g>
			<path fill="#FFFFFF" d="M14.301,9.9c-0.014-1.528,1.251-2.271,1.309-2.306c-0.716-1.044-1.827-1.187-2.217-1.198
				c-0.933-0.098-1.837,0.558-2.312,0.558c-0.485,0-1.216-0.549-2.004-0.532C8.063,6.437,7.113,7.025,6.593,7.937
				c-1.074,1.86-0.273,4.593,0.756,6.096c0.515,0.736,1.116,1.558,1.904,1.529c0.77-0.032,1.058-0.491,1.988-0.491
				c0.921,0,1.191,0.491,1.994,0.473c0.827-0.013,1.347-0.74,1.844-1.482c0.595-0.844,0.834-1.675,0.843-1.718
				C15.903,12.337,14.317,11.732,14.301,9.9z"/>
			<path fill="#FFFFFF" d="M12.784,5.407c0.414-0.518,0.698-1.223,0.619-1.938c-0.6,0.027-1.35,0.415-1.782,0.922
				c-0.382,0.447-0.723,1.179-0.635,1.867C11.66,6.307,12.352,5.917,12.784,5.407z"/>
		</g>
	</g>
	<g>
		<path fill="#FFFFFF" d="M25.45,15.457h-1.077l-0.59-1.853h-2.05l-0.562,1.853h-1.048l2.031-6.309h1.254L25.45,15.457z
			 M23.606,12.826l-0.533-1.647c-0.056-0.168-0.162-0.565-0.318-1.189h-0.019c-0.062,0.268-0.162,0.665-0.3,1.189l-0.524,1.647
			H23.606z"/>
		<path fill="#FFFFFF" d="M30.673,13.126c0,0.774-0.209,1.385-0.627,1.834c-0.375,0.4-0.84,0.599-1.395,0.599
			c-0.599,0-1.03-0.215-1.292-0.646H27.34v2.396H26.33v-4.905c0-0.486-0.013-0.986-0.037-1.498h0.889l0.056,0.721h0.019
			c0.337-0.543,0.849-0.814,1.535-0.814c0.537,0,0.985,0.212,1.343,0.636C30.494,11.875,30.673,12.433,30.673,13.126z
			 M29.643,13.163c0-0.443-0.1-0.808-0.3-1.095c-0.219-0.3-0.512-0.449-0.88-0.449c-0.249,0-0.476,0.083-0.678,0.248
			c-0.203,0.166-0.336,0.383-0.398,0.651c-0.031,0.125-0.047,0.228-0.047,0.308v0.759c0,0.331,0.101,0.61,0.304,0.838
			c0.203,0.228,0.466,0.342,0.791,0.342c0.381,0,0.677-0.147,0.889-0.44C29.537,14.031,29.643,13.644,29.643,13.163z"/>
		<path fill="#FFFFFF" d="M35.905,13.126c0,0.774-0.209,1.385-0.628,1.834c-0.374,0.4-0.839,0.599-1.394,0.599
			c-0.599,0-1.03-0.215-1.291-0.646h-0.019v2.396h-1.011v-4.905c0-0.486-0.013-0.986-0.037-1.498h0.889l0.056,0.721h0.019
			c0.337-0.543,0.848-0.814,1.535-0.814c0.536,0,0.984,0.212,1.344,0.636C35.726,11.875,35.905,12.433,35.905,13.126z
			 M34.876,13.163c0-0.443-0.1-0.808-0.3-1.095c-0.219-0.3-0.511-0.449-0.879-0.449c-0.25,0-0.476,0.083-0.679,0.248
			c-0.203,0.166-0.335,0.383-0.397,0.651c-0.031,0.125-0.047,0.228-0.047,0.308v0.759c0,0.331,0.101,0.61,0.303,0.838
			c0.203,0.228,0.466,0.342,0.792,0.342c0.381,0,0.677-0.147,0.889-0.44C34.77,14.031,34.876,13.644,34.876,13.163z"/>
		<path fill="#FFFFFF" d="M41.755,13.687c0,0.537-0.186,0.973-0.56,1.31c-0.411,0.368-0.983,0.552-1.719,0.552
			c-0.679,0-1.223-0.131-1.635-0.393l0.234-0.842c0.444,0.268,0.931,0.403,1.461,0.403c0.381,0,0.677-0.086,0.89-0.258
			c0.212-0.172,0.318-0.402,0.318-0.689c0-0.256-0.087-0.472-0.262-0.647c-0.174-0.175-0.465-0.338-0.87-0.488
			c-1.105-0.412-1.656-1.015-1.656-1.809c0-0.519,0.193-0.944,0.581-1.275c0.386-0.331,0.901-0.497,1.545-0.497
			c0.574,0,1.051,0.1,1.432,0.3l-0.253,0.824c-0.356-0.193-0.758-0.29-1.207-0.29c-0.356,0-0.633,0.088-0.832,0.262
			c-0.168,0.156-0.253,0.346-0.253,0.571c0,0.249,0.096,0.456,0.29,0.618c0.168,0.15,0.474,0.312,0.918,0.487
			c0.543,0.219,0.942,0.474,1.198,0.767C41.628,12.886,41.755,13.251,41.755,13.687z"/>
		<path fill="#FFFFFF" d="M45.097,11.666h-1.114v2.209c0,0.562,0.196,0.842,0.59,0.842c0.181,0,0.33-0.016,0.449-0.047l0.028,0.768
			c-0.199,0.074-0.461,0.112-0.786,0.112c-0.399,0-0.711-0.122-0.936-0.365c-0.224-0.244-0.337-0.652-0.337-1.226v-2.293h-0.664
			v-0.759h0.664v-0.833l0.993-0.3v1.133h1.114V11.666z"/>
		<path fill="#FFFFFF" d="M50.124,13.145c0,0.699-0.2,1.273-0.599,1.722c-0.419,0.462-0.974,0.693-1.667,0.693
			c-0.667,0-1.199-0.221-1.595-0.664c-0.396-0.443-0.594-1.002-0.594-1.675c0-0.705,0.204-1.282,0.613-1.731
			c0.408-0.449,0.959-0.674,1.652-0.674c0.667,0,1.205,0.221,1.61,0.665C49.93,11.909,50.124,12.464,50.124,13.145z M49.075,13.177
			c0-0.42-0.09-0.779-0.271-1.079c-0.212-0.363-0.515-0.544-0.907-0.544c-0.406,0-0.715,0.182-0.927,0.544
			c-0.182,0.301-0.271,0.666-0.271,1.098c0,0.42,0.09,0.779,0.271,1.079c0.219,0.363,0.524,0.544,0.918,0.544
			c0.386,0,0.689-0.185,0.907-0.554C48.981,13.96,49.075,13.596,49.075,13.177z"/>
		<path fill="#FFFFFF" d="M53.409,11.796c-0.1-0.018-0.207-0.028-0.319-0.028c-0.356,0-0.631,0.134-0.824,0.403
			c-0.168,0.237-0.253,0.537-0.253,0.898v2.387h-1.01l0.009-3.117c0-0.524-0.013-1.002-0.038-1.432h0.88l0.037,0.87h0.028
			c0.107-0.299,0.275-0.54,0.505-0.721c0.225-0.163,0.468-0.244,0.731-0.244c0.093,0,0.178,0.007,0.253,0.018L53.409,11.796z"/>
		<path fill="#FFFFFF" d="M57.929,12.967c0,0.181-0.012,0.334-0.037,0.458H54.86c0.012,0.449,0.158,0.793,0.44,1.03
			c0.256,0.212,0.586,0.318,0.992,0.318c0.449,0,0.859-0.072,1.227-0.215l0.158,0.702c-0.43,0.188-0.939,0.281-1.525,0.281
			c-0.705,0-1.259-0.208-1.662-0.622c-0.402-0.415-0.603-0.972-0.603-1.671c0-0.686,0.187-1.257,0.562-1.713
			c0.393-0.486,0.923-0.73,1.591-0.73c0.656,0,1.152,0.243,1.489,0.73C57.795,11.921,57.929,12.399,57.929,12.967z M56.966,12.705
			c0.007-0.3-0.059-0.558-0.196-0.777c-0.175-0.281-0.444-0.421-0.805-0.421c-0.33,0-0.599,0.137-0.805,0.412
			c-0.168,0.219-0.268,0.481-0.299,0.786L56.966,12.705L56.966,12.705z"/>
	</g>
	<g>
		<g>
			<path fill="#FFFFFF" d="M23.272,5.266c0,0.558-0.167,0.978-0.502,1.26c-0.31,0.26-0.75,0.391-1.319,0.391
				c-0.283,0-0.524-0.012-0.727-0.037V3.831c0.264-0.043,0.549-0.064,0.856-0.064c0.543,0,0.952,0.118,1.228,0.354
				C23.117,4.388,23.272,4.77,23.272,5.266z M22.748,5.28c0-0.362-0.096-0.639-0.287-0.832c-0.192-0.193-0.471-0.29-0.84-0.29
				c-0.156,0-0.29,0.01-0.4,0.032v2.318c0.061,0.009,0.173,0.014,0.336,0.014c0.38,0,0.674-0.106,0.88-0.317
				C22.644,5.993,22.748,5.685,22.748,5.28z"/>
			<path fill="#FFFFFF" d="M26.049,5.754c0,0.344-0.098,0.625-0.294,0.846c-0.206,0.227-0.478,0.34-0.819,0.34
				c-0.328,0-0.589-0.109-0.784-0.327c-0.194-0.218-0.292-0.492-0.292-0.823c0-0.346,0.1-0.63,0.301-0.85
				c0.201-0.22,0.471-0.331,0.812-0.331c0.328,0,0.592,0.109,0.791,0.326C25.954,5.147,26.049,5.42,26.049,5.754z M25.534,5.77
				c0-0.206-0.045-0.383-0.133-0.53c-0.104-0.178-0.253-0.267-0.446-0.267c-0.2,0-0.351,0.089-0.456,0.267
				c-0.089,0.147-0.133,0.327-0.133,0.539c0,0.206,0.045,0.383,0.133,0.53c0.108,0.178,0.257,0.267,0.451,0.267
				c0.19,0,0.338-0.091,0.446-0.272C25.488,6.154,25.534,5.976,25.534,5.77z"/>
			<path fill="#FFFFFF" d="M29.774,4.655L29.074,6.89h-0.455l-0.29-0.97c-0.073-0.242-0.133-0.483-0.18-0.722h-0.009
				c-0.043,0.246-0.103,0.486-0.18,0.722l-0.308,0.97h-0.46l-0.658-2.235h0.511l0.253,1.062c0.061,0.251,0.111,0.491,0.152,0.717
				h0.009c0.037-0.187,0.098-0.425,0.184-0.713l0.317-1.067h0.405l0.304,1.044c0.073,0.255,0.133,0.5,0.179,0.736h0.014
				c0.034-0.23,0.084-0.475,0.152-0.736l0.271-1.044L29.774,4.655L29.774,4.655z"/>
			<path fill="#FFFFFF" d="M32.349,6.89h-0.497V5.61c0-0.394-0.15-0.592-0.45-0.592c-0.147,0-0.266,0.054-0.359,0.163
				c-0.091,0.109-0.138,0.237-0.138,0.383v1.326h-0.497V5.293c0-0.196-0.006-0.409-0.018-0.64h0.437l0.023,0.349h0.014
				c0.058-0.109,0.144-0.198,0.257-0.27c0.135-0.083,0.285-0.126,0.45-0.126c0.209,0,0.382,0.067,0.52,0.202
				c0.172,0.165,0.257,0.412,0.257,0.741V6.89z"/>
			<path fill="#FFFFFF" d="M33.719,6.89h-0.496v-3.26h0.496V6.89z"/>
			<path fill="#FFFFFF" d="M36.645,5.754c0,0.344-0.098,0.625-0.294,0.846c-0.206,0.227-0.479,0.34-0.819,0.34
				c-0.329,0-0.59-0.109-0.784-0.327c-0.194-0.218-0.292-0.492-0.292-0.823c0-0.346,0.1-0.63,0.301-0.85
				c0.201-0.22,0.471-0.331,0.811-0.331c0.329,0,0.592,0.109,0.792,0.326C36.549,5.147,36.645,5.42,36.645,5.754z M36.129,5.77
				c0-0.206-0.045-0.383-0.133-0.53c-0.104-0.178-0.253-0.267-0.445-0.267c-0.2,0-0.352,0.089-0.456,0.267
				c-0.089,0.147-0.133,0.327-0.133,0.539c0,0.206,0.045,0.383,0.133,0.53c0.108,0.178,0.257,0.267,0.451,0.267
				c0.19,0,0.338-0.091,0.445-0.272C36.083,6.154,36.129,5.976,36.129,5.77z"/>
			<path fill="#FFFFFF" d="M39.049,6.89h-0.446l-0.037-0.257h-0.014C38.4,6.837,38.182,6.94,37.899,6.94
				c-0.211,0-0.382-0.068-0.51-0.202c-0.117-0.122-0.175-0.274-0.175-0.455c0-0.273,0.114-0.481,0.343-0.625
				c0.229-0.144,0.55-0.215,0.964-0.211V5.404c0-0.294-0.155-0.441-0.464-0.441c-0.22,0-0.415,0.055-0.583,0.165l-0.101-0.326
				c0.208-0.128,0.464-0.193,0.767-0.193c0.584,0,0.877,0.308,0.877,0.924v0.823C39.017,6.58,39.028,6.758,39.049,6.89z
				 M38.533,6.122V5.777c-0.548-0.009-0.822,0.141-0.822,0.45c0,0.117,0.031,0.204,0.095,0.262c0.064,0.058,0.146,0.087,0.243,0.087
				c0.109,0,0.211-0.035,0.304-0.103c0.093-0.069,0.151-0.157,0.172-0.265C38.53,6.185,38.533,6.155,38.533,6.122z"/>
			<path fill="#FFFFFF" d="M41.872,6.89h-0.441l-0.023-0.359h-0.014c-0.141,0.273-0.381,0.41-0.718,0.41
				c-0.269,0-0.494-0.106-0.671-0.317c-0.178-0.211-0.266-0.486-0.266-0.823c0-0.362,0.096-0.655,0.29-0.878
				c0.187-0.209,0.417-0.313,0.69-0.313c0.3,0,0.51,0.101,0.63,0.303h0.009V3.629h0.497v2.658C41.855,6.505,41.86,6.706,41.872,6.89
				z M41.357,5.947V5.575c0-0.064-0.005-0.117-0.014-0.156c-0.028-0.119-0.088-0.22-0.18-0.301
				c-0.092-0.081-0.204-0.122-0.332-0.122c-0.185,0-0.33,0.073-0.437,0.221c-0.106,0.147-0.159,0.336-0.159,0.566
				c0,0.221,0.051,0.4,0.153,0.538c0.108,0.147,0.253,0.22,0.434,0.22c0.163,0,0.293-0.061,0.393-0.184
				C41.31,6.243,41.357,6.106,41.357,5.947z"/>
			<path fill="#FFFFFF" d="M46.121,5.754c0,0.344-0.098,0.625-0.294,0.846c-0.206,0.227-0.478,0.34-0.819,0.34
				c-0.328,0-0.589-0.109-0.784-0.327c-0.194-0.218-0.292-0.492-0.292-0.823c0-0.346,0.1-0.63,0.301-0.85
				c0.201-0.22,0.471-0.331,0.812-0.331c0.328,0,0.592,0.109,0.791,0.326C46.026,5.147,46.121,5.42,46.121,5.754z M45.606,5.77
				c0-0.206-0.045-0.383-0.133-0.53c-0.105-0.178-0.253-0.267-0.446-0.267c-0.199,0-0.351,0.089-0.456,0.267
				c-0.089,0.147-0.133,0.327-0.133,0.539c0,0.206,0.045,0.383,0.133,0.53c0.108,0.178,0.257,0.267,0.451,0.267
				c0.19,0,0.339-0.091,0.446-0.272C45.56,6.154,45.606,5.976,45.606,5.77z"/>
			<path fill="#FFFFFF" d="M48.793,6.89h-0.496V5.61c0-0.394-0.15-0.592-0.451-0.592c-0.147,0-0.266,0.054-0.358,0.163
				c-0.092,0.109-0.138,0.237-0.138,0.383v1.326h-0.497V5.293c0-0.196-0.006-0.409-0.018-0.64h0.436l0.023,0.349h0.014
				c0.058-0.109,0.145-0.198,0.257-0.27C47.7,4.65,47.85,4.608,48.016,4.608c0.208,0,0.382,0.067,0.52,0.202
				c0.172,0.165,0.257,0.412,0.257,0.741C48.793,5.551,48.793,6.89,48.793,6.89z"/>
			<path fill="#FFFFFF" d="M52.136,5.027h-0.547v1.086c0,0.276,0.097,0.414,0.29,0.414c0.089,0,0.163-0.008,0.221-0.023l0.013,0.377
				c-0.098,0.037-0.227,0.055-0.386,0.055c-0.196,0-0.349-0.06-0.459-0.179c-0.111-0.119-0.166-0.32-0.166-0.603V5.027h-0.327V4.655
				h0.327v-0.41l0.487-0.147v0.556h0.547L52.136,5.027L52.136,5.027z"/>
			<path fill="#FFFFFF" d="M54.766,6.89h-0.497V5.619c0-0.401-0.15-0.601-0.45-0.601c-0.23,0-0.388,0.116-0.474,0.348
				c-0.015,0.049-0.023,0.109-0.023,0.179v1.344h-0.496v-3.26h0.496v1.347h0.009c0.156-0.245,0.381-0.367,0.671-0.367
				c0.206,0,0.376,0.067,0.511,0.202c0.168,0.168,0.253,0.419,0.253,0.75V6.89z"/>
			<path fill="#FFFFFF" d="M57.48,5.666c0,0.089-0.007,0.164-0.018,0.225h-1.49c0.007,0.221,0.078,0.389,0.216,0.506
				c0.126,0.104,0.289,0.156,0.488,0.156c0.22,0,0.421-0.035,0.603-0.106l0.078,0.345c-0.212,0.092-0.461,0.138-0.75,0.138
				c-0.346,0-0.619-0.102-0.816-0.306c-0.198-0.204-0.296-0.477-0.296-0.821c0-0.337,0.091-0.618,0.276-0.841
				c0.192-0.239,0.453-0.358,0.781-0.358c0.321,0,0.566,0.119,0.731,0.358C57.414,5.153,57.48,5.388,57.48,5.666z M57.006,5.538
				c0.004-0.147-0.029-0.274-0.096-0.382c-0.086-0.138-0.218-0.207-0.395-0.207c-0.162,0-0.294,0.067-0.395,0.202
				c-0.082,0.108-0.131,0.236-0.147,0.386C55.971,5.538,57.006,5.538,57.006,5.538z"/>
		</g>
	</g>
</g>
</svg>
